<svg width="60" height="60" viewBox="0 0 60 60" version="1.1" xmlns="http://www.w3.org/2000/svg" xmlns:xlink="http://www.w3.org/1999/xlink">
<title>ico_logistik</title>
<desc>Created using Figma</desc>
<g id="Canvas" transform="translate(117 -6444)">
<g id="ico_logistik">
<g id="Ellipse">
<use xlink:href="#path0_fill" transform="translate(-117 6444)" fill="#F1F7FF"/>
</g>
<g id="noun_629778">
<g id="Vector">
<use xlink:href="#path1_fill" transform="translate(-116 6452)" fill="#0052A8"/>
</g>
</g>
</g>
</g>
<defs>
<path id="path0_fill" d="M 60 30C 60 46.5685 46.5685 60 30 60C 13.4315 60 0 46.5685 0 30C 0 13.4315 13.4315 0 30 0C 46.5685 0 60 13.4315 60 30Z"/>
<path id="path1_fill" d="M 55.4534 17.0735L 54.8163 17.0735L 54.8163 12.9632C 54.8125 11.739 53.8192 10.7538 52.5864 10.75L 46.2152 10.75C 46.1056 10.75 46.0011 10.7671 45.8966 10.7829L 45.8966 7.27206C 45.8928 6.04782 44.8995 5.06262 43.6667 5.05882L 36.0212 5.05882C 34.7878 5.06262 33.7951 6.04782 33.7913 7.27206L 33.7913 10.7829C 33.6862 10.7671 33.5817 10.75 33.4727 10.75L 27.1015 10.75C 25.8681 10.7538 24.8754 11.739 24.8716 12.9632L 24.8716 20.5515C 24.8716 20.6596 24.8888 20.7633 24.9047 20.8676C 24.662 20.8676 24.4326 20.8676 24.2345 20.8676L 19.7415 20.8676C 19.7568 20.7633 19.7746 20.6596 19.7746 20.5515L 19.7746 7.27206C 19.7746 7.16392 19.7574 7.06022 19.7415 6.95588L 22.6417 6.95588C 23.1692 6.95588 23.5974 6.53094 23.5974 6.00735C 23.5974 5.48313 23.1692 5.05882 22.6417 5.05882L 17.5447 5.05882L 12.1292 5.05882L 12.1292 0.948529C 12.1292 0.424309 11.701 0 11.1735 0C 10.646 0 10.2178 0.424309 10.2178 0.948529L 10.2178 5.05882L 7.9879 5.05882C 7.37563 5.06072 6.82643 5.29975 6.40848 5.66651C 5.99244 6.03391 5.68662 6.54675 5.61208 7.15064L 4.00462 20.4478L 4.00589 20.4478C 3.99379 20.5432 3.98933 20.6324 3.98933 20.7089C 3.98869 20.7627 4.00143 20.8145 4.00462 20.8676L 3.20949 20.8676C 1.80082 20.8714 0.66483 21.9996 0.661008 23.3971L 0.661008 29.7206C 0.662282 30.2429 0.731728 30.8417 0.840039 31.4412C 0.950898 32.04 1.09616 32.6256 1.28093 33.115L 3.87847 39.9894C 3.10692 39.4645 2.41118 38.8562 1.63262 38.3313C 0.642531 37.6636 -0.617058 38.8751 0.342447 39.7314C 1.99132 41.0865 3.97722 42.7761 6.19886 42.9835C 7.39538 43.0948 8.59444 42.6256 9.6202 42.0584C 10.1044 41.7909 10.5682 41.488 11.0142 41.1605C 11.2729 40.9695 11.5717 40.6091 11.8839 40.4984C 12.428 40.3049 13.3442 41.3337 13.7315 41.5879C 14.7955 42.2861 16.0175 42.8994 17.3109 42.9892C 18.5074 43.0727 19.6778 42.6263 20.7061 42.0584C 21.1903 41.7909 21.6541 41.488 22.0995 41.1605C 22.3588 40.9695 22.6576 40.6091 22.9698 40.4984C 23.5126 40.3049 24.4301 41.3337 24.8168 41.5873C 25.8821 42.2848 27.1034 42.8988 28.3968 42.9892C 29.5927 43.0727 30.7631 42.6263 31.7907 42.0584C 32.275 41.7909 32.7388 41.488 33.1848 41.1605C 33.4434 40.9695 33.7422 40.6091 34.0544 40.4984C 34.5973 40.3049 35.516 41.3337 35.9027 41.5873C 36.9686 42.2848 38.1894 42.8988 39.4827 42.9892C 40.6792 43.0727 41.8496 42.6263 42.8779 42.0584C 43.3615 41.7909 43.8253 41.488 44.2707 41.1605C 44.5294 40.9695 44.8282 40.6091 45.1403 40.4984C 45.6838 40.3049 46.6 41.3337 46.9874 41.5879C 48.0533 42.2861 49.2746 42.8994 50.5686 42.9892C 52.9075 43.1524 55.2808 41.2484 56.9468 39.8161C 57.554 39.2944 57.4693 38.2384 56.5658 38.0891C 55.8484 37.9703 55.0985 38.884 54.5933 39.259C 53.7918 39.8547 52.896 40.4895 51.9314 40.8512L 57.3399 27.4308C 57.5362 26.9401 57.6916 26.3558 57.8082 25.757C 57.9242 25.1575 57.9987 24.5581 58 24.03L 58 19.6036C 57.9981 18.2054 56.8615 17.0773 55.4534 17.0735ZM 45.9909 12.7406C 46.0533 12.6806 46.1279 12.6471 46.2152 12.6471L 52.5864 12.6471C 52.673 12.6471 52.7482 12.6806 52.8106 12.7406C 52.8718 12.802 52.9049 12.8766 52.9049 12.9632L 52.9049 17.0735L 45.8966 17.0735L 45.8966 12.9632C 45.8966 12.8772 45.9297 12.8026 45.9909 12.7406ZM 35.7027 7.27206C 35.7027 7.18606 35.7364 7.11144 35.797 7.04947C 35.8594 6.9894 35.9339 6.95588 36.0212 6.95588L 43.6667 6.95588C 43.7533 6.95588 43.8285 6.9894 43.891 7.04947C 43.9521 7.11081 43.9852 7.18542 43.9852 7.27206L 43.9852 12.9632L 43.9852 17.0735L 42.711 17.0735C 42.0866 17.0773 41.4718 17.2417 40.8869 17.4877C 40.3046 17.7394 39.7611 18.0695 39.3292 18.5172L 37.8988 20.0159C 37.7281 20.1999 37.3656 20.4433 36.9737 20.6077C 36.6227 20.7601 36.2474 20.8474 35.9919 20.8613C 35.918 20.8537 35.8524 20.8265 35.7976 20.7734C 35.7364 20.7121 35.7033 20.6375 35.7033 20.5508L 35.7033 12.9626L 35.7033 7.27206L 35.7027 7.27206ZM 26.8773 20.7741C 26.8161 20.7127 26.783 20.6381 26.783 20.5515L 26.783 12.9632C 26.783 12.8772 26.8167 12.8026 26.8773 12.7406C 26.9397 12.6806 27.0142 12.6471 27.1015 12.6471L 33.4727 12.6471C 33.5594 12.6471 33.6346 12.6806 33.697 12.7406C 33.7582 12.802 33.7913 12.8766 33.7913 12.9632L 33.7913 20.5515C 33.7913 20.6375 33.7575 20.7121 33.697 20.7741C 33.6339 20.8341 33.5588 20.8676 33.4727 20.8676L 27.4201 20.8676L 27.1015 20.8676C 27.0142 20.8676 26.9397 20.8341 26.8773 20.7741ZM 17.8633 14.5441L 13.773 14.5441C 13.6857 14.5441 13.606 14.51 13.5404 14.4467C 13.4754 14.3822 13.441 14.3026 13.4397 14.2166L 13.4181 12.3119C 13.4206 12.15 13.5551 12.0147 13.722 12.0147L 17.8633 12.0147L 17.8633 14.5441ZM 5.94083 20.8234C 5.91981 20.8 5.90197 20.7753 5.90069 20.7089L 5.90133 20.6881L 7.5107 7.3764C 7.51962 7.28913 7.57696 7.17404 7.67762 7.08614C 7.77765 6.99761 7.89998 6.95462 7.9879 6.95588L 10.2178 6.95588L 17.5447 6.95588C 17.6314 6.95588 17.7065 6.9894 17.769 7.04947C 17.8301 7.11081 17.8633 7.18542 17.8633 7.27206L 17.8633 10.1176L 13.722 10.1176C 12.4974 10.1189 11.5074 11.101 11.5054 12.3151L 11.5067 12.3549L 11.5277 14.2387C 11.5488 15.4617 12.5408 16.4355 13.7723 16.4412L 17.8626 16.4412L 17.8626 20.5515C 17.8626 20.6375 17.8289 20.7121 17.7683 20.7741C 17.7059 20.8341 17.6307 20.8676 17.5447 20.8676L 6.07654 20.8676C 5.99244 20.8657 5.9644 20.8436 5.94083 20.8234ZM 45.88 38.6342C 44.8619 38.4003 44.1305 38.8669 43.3762 39.4531C 42.495 40.138 41.4699 40.7981 40.3613 41.0359C 39.1119 41.304 37.8612 40.6116 36.8584 39.9407C 36.1964 39.4974 35.5969 38.8189 34.7941 38.6349C 33.776 38.4009 33.0446 38.8676 32.2902 39.4531C 31.4078 40.138 30.3827 40.7981 29.2748 41.0359C 28.0247 41.304 26.7753 40.611 25.7738 39.9407C 24.7608 39.2628 23.9586 38.3206 22.5939 38.6342C 21.4197 38.9042 20.4443 40.0962 19.3643 40.6154C 17.7492 41.3919 16.3966 41.0239 14.9344 40.1013C 13.9246 39.4632 13.1078 38.4388 11.7871 38.5868C 10.6581 38.7139 9.74062 39.8066 8.79195 40.3454C 7.89934 40.8525 7.11441 41.0795 6.30399 41.0043L 3.9511 34.7794L 52.3213 34.7794L 49.8417 40.9322C 49.151 40.7096 48.4878 40.3043 47.9437 39.94C 47.2811 39.4974 46.6822 38.8182 45.88 38.6342ZM 56.0905 24.0294C 56.0918 24.3709 56.0332 24.8919 55.9338 25.3978C 55.837 25.9037 55.6962 26.4089 55.5668 26.7264L 53.0853 32.8823L 3.23434 32.8823L 3.0706 32.4486C 2.947 32.1242 2.81384 31.6132 2.72082 31.1029C 2.62653 30.592 2.5711 30.0677 2.57237 29.7206L 2.57237 23.3971C 2.57237 23.2238 2.64182 23.0701 2.76032 22.9512C 2.87946 22.8336 3.03428 22.7647 3.20949 22.7647L 6.07654 22.7647L 17.5447 22.7647L 24.2345 22.7647C 25.0118 22.7647 26.2255 22.7647 27.1015 22.7647L 27.4201 22.7647L 33.4727 22.7647L 35.9034 22.7647C 36.5271 22.7609 37.1426 22.5965 37.7274 22.3505C 38.3104 22.0988 38.8532 21.7687 39.2852 21.321L 40.7155 19.8224C 40.8863 19.6383 41.2494 19.3949 41.6413 19.2305C 42.0306 19.0604 42.4587 18.9668 42.7104 18.9706L 55.4528 18.9706C 55.6267 18.9706 55.7822 19.0395 55.902 19.1571C 56.0205 19.276 56.0899 19.4297 56.0899 19.6029L 56.0899 24.0294L 56.0905 24.0294Z"/>
</defs>
</svg>
